[
    {
        "ticketId":"xk3d03",
        "subject":"Hola, mi item está roto",
        "date":"2020-03-01 01:30:00Z",
        "from":"Joaquín Pérez",
        "status":"SOLVED",
        "body":"Mi producto llegó roto, no funciona como debería"
    },
    {
        "ticketId":"xx35",
        "subject":"Hola, mi item no llegó",
        "date":"2020-03-02 05:30:00Z",
        "from":"Romina Esperanto",
        "status":"NEW",
        "body":"Mi producto no llegó, cuándo debería llegar?"
    }
]